%YAML 1.1
%TAG !u! tag:unity3d.com,2011:
--- !u!114 &11400000
MonoBehaviour:
  m_ObjectHideFlags: 0
  m_CorrespondingSourceObject: {fileID: 0}
  m_PrefabInstance: {fileID: 0}
  m_PrefabAsset: {fileID: 0}
  m_GameObject: {fileID: 0}
  m_Enabled: 1
  m_EditorHideFlags: 0
  m_Script: {fileID: 11500000, guid: a39c3b8b7ff40814a8288c8e3834189f, type: 3}
  m_Name: Enemy04
  m_EditorClassIdentifier: 
  enemyLevel: 4
  prefab: {fileID: 4093168085222407272, guid: a8ae8dc3d2d9ff04eb1ec1f0965569fc, type: 3}
