%YAML 1.1
%TAG !u! tag:unity3d.com,2011:
--- !u!1001 &9036254478369047059
PrefabInstance:
  m_ObjectHideFlags: 0
  serializedVersion: 2
  m_Modification:
    m_TransformParent: {fileID: 0}
    m_Modifications:
    - target: {fileID: 1092105180723745595, guid: ea9fc8f2e809ee04299741d9005a677c,
        type: 3}
      propertyPath: firePoints.Array.size
      value: 2
      objectReference: {fileID: 0}
    - target: {fileID: 1092105180723745595, guid: ea9fc8f2e809ee04299741d9005a677c,
        type: 3}
      propertyPath: firePoints.Array.data[0]
      value: 
      objectReference: {fileID: 3499853296437472712}
    - target: {fileID: 1092105180723745595, guid: ea9fc8f2e809ee04299741d9005a677c,
        type: 3}
      propertyPath: firePoints.Array.data[1]
      value: 
      objectReference: {fileID: 9052087041955483974}
    - target: {fileID: 4986635513240285260, guid: ea9fc8f2e809ee04299741d9005a677c,
        type: 3}
      propertyPath: m_LocalPosition.x
      value: 0
      objectReference: {fileID: 0}
    - target: {fileID: 4986635513240285260, guid: ea9fc8f2e809ee04299741d9005a677c,
        type: 3}
      propertyPath: m_LocalPosition.y
      value: 0
      objectReference: {fileID: 0}
    - target: {fileID: 4986635513240285260, guid: ea9fc8f2e809ee04299741d9005a677c,
        type: 3}
      propertyPath: m_LocalPosition.z
      value: 0
      objectReference: {fileID: 0}
    - target: {fileID: 4986635513240285260, guid: ea9fc8f2e809ee04299741d9005a677c,
        type: 3}
      propertyPath: m_LocalRotation.x
      value: 0
      objectReference: {fileID: 0}
    - target: {fileID: 4986635513240285260, guid: ea9fc8f2e809ee04299741d9005a677c,
        type: 3}
      propertyPath: m_LocalRotation.y
      value: 1
      objectReference: {fileID: 0}
    - target: {fileID: 4986635513240285260, guid: ea9fc8f2e809ee04299741d9005a677c,
        type: 3}
      propertyPath: m_LocalRotation.z
      value: 0
      objectReference: {fileID: 0}
    - target: {fileID: 4986635513240285260, guid: ea9fc8f2e809ee04299741d9005a677c,
        type: 3}
      propertyPath: m_LocalRotation.w
      value: 0
      objectReference: {fileID: 0}
    - target: {fileID: 4986635513240285260, guid: ea9fc8f2e809ee04299741d9005a677c,
        type: 3}
      propertyPath: m_RootOrder
      value: 0
      objectReference: {fileID: 0}
    - target: {fileID: 4986635513240285260, guid: ea9fc8f2e809ee04299741d9005a677c,
        type: 3}
      propertyPath: m_LocalEulerAnglesHint.x
      value: 0
      objectReference: {fileID: 0}
    - target: {fileID: 4986635513240285260, guid: ea9fc8f2e809ee04299741d9005a677c,
        type: 3}
      propertyPath: m_LocalEulerAnglesHint.y
      value: 180
      objectReference: {fileID: 0}
    - target: {fileID: 4986635513240285260, guid: ea9fc8f2e809ee04299741d9005a677c,
        type: 3}
      propertyPath: m_LocalEulerAnglesHint.z
      value: 0
      objectReference: {fileID: 0}
    - target: {fileID: 4986635513240285261, guid: ea9fc8f2e809ee04299741d9005a677c,
        type: 3}
      propertyPath: m_Name
      value: Enemy_Small_02
      objectReference: {fileID: 0}
    - target: {fileID: 4986635513240285261, guid: ea9fc8f2e809ee04299741d9005a677c,
        type: 3}
      propertyPath: m_IsActive
      value: 1
      objectReference: {fileID: 0}
    - target: {fileID: 4986635513240285263, guid: ea9fc8f2e809ee04299741d9005a677c,
        type: 3}
      propertyPath: maxHealth
      value: 60
      objectReference: {fileID: 0}
    m_RemovedComponents:
    - {fileID: 3643246491826261396, guid: ea9fc8f2e809ee04299741d9005a677c, type: 3}
  m_SourcePrefab: {fileID: 100100000, guid: ea9fc8f2e809ee04299741d9005a677c, type: 3}
--- !u!4 &3499853296437472712 stripped
Transform:
  m_CorrespondingSourceObject: {fileID: 5617892633651900379, guid: ea9fc8f2e809ee04299741d9005a677c,
    type: 3}
  m_PrefabInstance: {fileID: 9036254478369047059}
  m_PrefabAsset: {fileID: 0}
--- !u!4 &9052087041955483974 stripped
Transform:
  m_CorrespondingSourceObject: {fileID: 69876876076913493, guid: ea9fc8f2e809ee04299741d9005a677c,
    type: 3}
  m_PrefabInstance: {fileID: 9036254478369047059}
  m_PrefabAsset: {fileID: 0}
